接口名,接口名称,接口类型,每日允许调用次数,更新时间
GetLoginStr,获取免登易流云平台的密钥,公共接口,5000,2014/11/13 12:03
GetVehcilelnfo,获取车辆的最新位置信息,公共接口,10000,2016/1/25 17:59
GetVehcilelnfoMap,以地图模式获取车辆的最新位置信息,公共接口,5000,2014/11/13 12:03
GetTrackDetail,获取车辆的轨迹信息,公共接口,30000,2017/6/29 14:38
GetTrackDetailAndSecond,根据时间间隔抽希车辆轨迹信息,公共接口,10000000,2015/11/18 17:42
GetTrackDetailMap,以地图模式获取车辆的轨迹,公共接口,5000,2014/11/13 12:03
GetVehcilelnfoWithPoint,查询圆形区域内车辆的最新位置信息,公共接口,5000,2014/11/13 12:03
GetVehicleOdometer,查询车辆的行驶里程,公共接口,5000,2014/11/24 13:58
GetVechileslnOutArealnfo,查询车辆的进出区域明细信息,公共接口,5000,2014/11/24 14:03
GetVehicleTemperatureInfo,查询车辆的温度信息,公共接口,20000,2017/6/29 14:38
GetVechileOilExpendInfo,查询车辆的加/偷油信息,公共接口,5000,2014/11/24 14:01
GetGPSPicture,获取车辆的照片信息，只支持单车查询,公共接口,5000,2014/11/24 14:07
GetDrivelnfo,查询车辆到达某个区域的预计时间和里程,公共接口,10000,2015/5/25 14:58
GetVehcilelnfo_ZHB,获取追货宝的最新位置信息,公共接口,10000,2016/12/27 14:30
GetTrackDetail_ZHB,获取追货宝的轨迹信息,公共接口,10000,2016/12/27 14:30
GetAreaLonLatInfo,查询电子围栏的经纬度,公共接口,5000,2015/8/12 17:42
GetDrivelnfoByPlaceName,查询两个地点间的预计时间和里程,公共接口,5000,2015/12/23 16:44
GetVehicleNoList,获取当前账户下的车辆信息,公共接口,5000,2015/12/30 16:23
GetMapCoordinatesTranslate,根据地图坐标转化经纬度,公共接口,5000,2016/1/20 16:11
OperateArea,添加/修改/删除自定义点、区域,公共接口,10000,2016/8/16 14:53
